optimum = 83;
etapes =  {<"Sophie"
         0
         "cabinet"
         "7 Rue Jubé de la PerelleDourdan "
         48.528
         2.0124
         "cab"
         455
         0
         455
         15>
         <"Sophie"
         1
         "Marie_BEL"
         "19 Sente des Sablons91530 Saint-Chéron "
         48.554
         2.1214
         "CGL"
         470
         10
         480
         16>
         <"Sophie"
         2
         "Eric_BRY"
         "12 Rue Regnard91410 Dourdan France "
         48.53
         2.0056
         "IIM"
         496
         5
         501
         0>
         <"Sophie"
         3
         "Eric_BRY"
         "12 Rue Regnard91410 Dourdan France "
         48.53
         2.0056
         "CSUH"
         501
         30
         531
         0>
         <"Sophie"
         4
         "Eric_BRY"
         "12 Rue Regnard91410 Dourdan France "
         48.53
         2.0056
         "MD1"
         531
         5
         536
         2>
         <"Sophie"
         5
         "cabinet"
         "7 Rue Jubé de la PerelleDourdan "
         48.528
         2.0124
         "cab"
         536
         0
         538
         0>};
