optimum = 232;
etapes =  {<"Sophie"
         0
         "cabinet"
         "7 Rue Jubé de la PerelleDourdan "
         48.528
         2.0124
         "cab"
         600
         0
         600
         11>
         <"Sophie"
         1
         "Lana_BOUCHET"
         "4 Rue des Granges91410 Richarville France "
         48.472
         2.0003
         "IIM"
         611
         5
         616
         13>
         <"Sophie"
         2
         "Hugo_DUPUIS"
         "14 Rue Héroux91410 Dourdan France		 "
         48.531
         2.0096
         "MD1"
         629
         5
         634
         0>
         <"Sophie"
         3
         "Hugo_DUPUIS"
         "14 Rue Héroux91410 Dourdan France		 "
         48.531
         2.0096
         "TL1"
         634
         15
         649
         12>
         <"Sophie"
         4
         "Lana_BOUCHET"
         "4 Rue des Granges91410 Richarville France "
         48.472
         2.0003
         "PS1"
         736
         10
         746
         5>
         <"Sophie"
         5
         "Noah_MAILLARD"
         "5 Rue d'Authon91410 Plessis-Saint-Benoist France		 "
         48.445
         2.0002
         "PS1"
         751
         10
         761
         5>
         <"Sophie"
         6
         "Lana_BOUCHET"
         "4 Rue des Granges91410 Richarville France "
         48.472
         2.0003
         "TL1"
         806
         15
         821
         11>
         <"Sophie"
         7
         "cabinet"
         "7 Rue Jubé de la PerelleDourdan "
         48.528
         2.0124
         "cab"
         821
         0
         832
         0>};
