optimum = 566;
etapes =  {<"Marie"
         0
         "cabinet"
         "7 Rue Jubé de la PerelleDourdan "
         48.528
         2.0124
         "cab"
         625
         0
         625
         15>
         <"Marie"
         1
         "Jean_DUPONT"
         "19 Sente des Sablons91530 Saint-Chéron "
         48.554
         2.1214
         "TL1"
         640
         15
         655
         0>
         <"Marie"
         2
         "Jean_DUPONT"
         "19 Sente des Sablons91530 Saint-Chéron "
         48.554
         2.1214
         "MD1"
         655
         5
         660
         16>
         <"Marie"
         3
         "Wassim_MICHAUD"
         "5 Rue Jules Ferry91410 Dourdan France "
         48.526
         2.0112
         "CGL"
         750
         10
         760
         16>
         <"Marie"
         4
         "Jean_DUPONT"
         "19 Sente des Sablons91530 Saint-Chéron "
         48.554
         2.1214
         "TL2"
         1140
         25
         1165
         0>
         <"Marie"
         5
         "Jean_DUPONT"
         "19 Sente des Sablons91530 Saint-Chéron "
         48.554
         2.1214
         "MD2"
         1165
         10
         1175
         16>
         <"Marie"
         6
         "cabinet"
         "7 Rue Jubé de la PerelleDourdan "
         48.528
         2.0124
         "cab"
         1175
         0
         1191
         0>};
