optimum = 610;
etapes =  {<"Sophie"
         0
         "cabinet"
         "7 Rue Jubé de la PerelleDourdan "
         48.528
         2.0124
         "cab"
         575
         0
         575
         15>
         <"Sophie"
         1
         "Marie_BEL"
         "19 Sente des Sablons91530 Saint-Chéron "
         48.554
         2.1214
         "TSA"
         590
         5
         595
         0>
         <"Sophie"
         2
         "Marie_BEL"
         "19 Sente des Sablons91530 Saint-Chéron "
         48.554
         2.1214
         "MD1"
         595
         5
         600
         8>
         <"Sophie"
         3
         "Jean_DUPONT"
         "8 Place du Patrouillot91530 Le Val-Saint-Germain "
         48.563
         2.0574
         "TL1"
         608
         15
         623
         0>
         <"Sophie"
         4
         "Jean_DUPONT"
         "8 Place du Patrouillot91530 Le Val-Saint-Germain "
         48.563
         2.0574
         "MD1"
         623
         5
         628
         8>
         <"Sophie"
         5
         "Marie_BEL"
         "19 Sente des Sablons91530 Saint-Chéron "
         48.554
         2.1214
         "PS1"
         750
         10
         760
         8>
         <"Sophie"
         6
         "Jean_DUPONT"
         "8 Place du Patrouillot91530 Le Val-Saint-Germain "
         48.563
         2.0574
         "TL2"
         1140
         25
         1165
         0>
         <"Sophie"
         7
         "Jean_DUPONT"
         "8 Place du Patrouillot91530 Le Val-Saint-Germain "
         48.563
         2.0574
         "MD2"
         1165
         10
         1175
         10>
         <"Sophie"
         8
         "cabinet"
         "7 Rue Jubé de la PerelleDourdan "
         48.528
         2.0124
         "cab"
         1175
         0
         1185
         0>};
