optimum = 711;
etapes =  {<"Marie"
         0
         "cabinet"
         "7 Rue Jubé de la PerelleDourdan "
         48.528
         2.0124
         "cab"
         455
         0
         455
         15>
         <"Marie"
         1
         "Marie_BEL"
         "19 Sente des Sablons91530 Saint-Chéron "
         48.554
         2.1214
         "CGL"
         470
         10
         480
         0>
         <"Marie"
         2
         "Marie_BEL"
         "19 Sente des Sablons91530 Saint-Chéron "
         48.554
         2.1214
         "TSA"
         510
         5
         515
         0>
         <"Marie"
         3
         "Marie_BEL"
         "19 Sente des Sablons91530 Saint-Chéron "
         48.554
         2.1214
         "MD1"
         515
         5
         520
         16>
         <"Marie"
         4
         "Eric_BRY"
         "12 Rue Regnard91410 Dourdan France "
         48.53
         2.0056
         "IIM"
         536
         5
         541
         16>
         <"Marie"
         5
         "Marie_BEL"
         "19 Sente des Sablons91530 Saint-Chéron "
         48.554
         2.1214
         "PS1"
         750
         10
         760
         0>
         <"Marie"
         6
         "Marie_BEL"
         "19 Sente des Sablons91530 Saint-Chéron "
         48.554
         2.1214
         "IID"
         1140
         5
         1145
         0>
         <"Marie"
         7
         "Marie_BEL"
         "19 Sente des Sablons91530 Saint-Chéron "
         48.554
         2.1214
         "MD1"
         1145
         5
         1150
         16>
         <"Marie"
         8
         "cabinet"
         "7 Rue Jubé de la PerelleDourdan "
         48.528
         2.0124
         "cab"
         1150
         0
         1166
         0>};
