// enonce pour modele2

journee 8h 20h 

soins   Hugo_DUPUIS		TL1+MD1:matin

soins   Noah_MAILLARD	 	PS1:[12h30-14h00]		

soins   Lana_BOUCHET           IIM       2h<<3h             PS1          1h<<2h       TL1

indisponibilite    Lana_BOUCHET    8h 10h    	 

adresse cabinet 				7 Rue Jubé de la Perelle, Dourdan

adresse Hugo_DUPUIS        14 Rue Héroux, 91410 Dourdan France		
adresse Noah_MAILLARD        5 Rue d'Authon, 91410 Plessis-Saint-Benoist France		
adresse Lana_BOUCHET        4 Rue des Granges, 91410 Richarville France

infirmiere Sophie

			
acte    IIM      5	 	Injection intramusculaire
acte    PS1     10		Pansements courants
acte    TL1     15		Toilette simple
acte    MD1     5		Administration médicamenteuse orale

