include "structuresResultat.mod";	// structures for expressing the result

// steps of the planning(s)
postProcessing.mod{Etape} steps = {};	// Plannings steps

execute {
	includeScript("../libs/result.js");
	
	//TODO
	//    Write code to fill steps with the planning(s) steps
	
	save_result(optimum,steps,modelName);	// generates the output file
}


